Major_Class,Category,level_of_assessment,Code_Description,Regression_Class
0,Exempt and Railroad,0,EX,
0,Exempt and Railroad,0,RR,
1,Vacant,0.1,1-00 Vacant Land,
1,Vacant,0.1,1-90 Minor Improvement on Vacant Land,
2,Residential,0.1,2-00 Residential Land,Y
2,Residential,0.1,"2-02 One-story Residence, any age, up to 999 square feet",Y
2,Residential,0.1,"2-03 One-story Residence, any age, 1,000 to 1,800 square feet",Y
2,Residential,0.1,"2-04 One-story Residence, any age, 1,801 square feet and over",Y
2,Residential,0.1,"2-05 Two-or-more story residence, over 62 years of age up to 2,200 square feet",Y
2,Residential,0.1,"2-06 Two-or-more story residence, over 62 years of age, 2,201 to 4,999 square feet",Y
2,Residential,0.1,"2-07 Two-or-more story residence, up to 62 years of age, up to 2,000 square feet",Y
2,Residential,0.1,"2-08 Two-or-more story residence, up to 62 years of age, 3,801 to 4,999 square feet",Y
2,Residential,0.1,"2-09 Two-or-more story residence, any age, 5,000 square feet and over",Y
2,Residential,0.1,"2-10 Old style row house (town home), over 62 years of age  ",Y
2,Residential,0.1,"2-11 Apartment building with 2 to 6 units, any age",Y
2,Residential,0.1,"2-12 Mixed-use commercial/residential building with apartment and commercial area totaling 6 units or less with a square foot area less than 20,000 square feet, any age",Y
2,Residential,0.1,"2-34 Split level residence with a lower level below grade (ground level) all ages, all sizes",Y
2,Residential,0.1,"2-78 Two-or-more story residence, up to 62 years of age, 2,001 to 3,800 square feet",Y
2,Residential,0.1,2-95 Individually-owned townhome or row house up to 62 years of age ,Y
2,Residential,0.1,2-00 Residential land,N
2,Residential,0.1,2-01 Residential garage,N
2,Residential,0.1,2-13 Cooperative,N
2,Residential,0.1,"2-18 A residential building licensed as a Bed & Breakfast by the municipality, County of Cook or registered as a Bed & Breakfast with the State of Illinois under 50 ILCS 820/1 et.seq., with six or fewer rentable units and where one unit is owner occupied and is entitled to a Homeowneręs Exemption pursuant to the Property Tax Code. ",N
2,Residential,0.1,"2-19 A residential building licensed as a Bed & Breakfast by the municipality, County of Cook or registered as a Bed & Breakfast with the State of Illinois under 50 ILCS 820/1 et.seq., with six or fewer rentable units and where none of the units is owner occupied and no Homeowneręs Exemption is allowed pursuant to the Property Tax Code.",N
2,Residential,0.1,"2-39 Non-equalized land under agricultural use, valued at farm pricing",N
2,Residential,0.1,2-24 Farm Building,N
2,Residential,0.1,2-25 Single-room occupancy rental building,N
2,Residential,0.1,2-36 Any residence located on a parcel used primarily for commercial or industrial purposes,N
2,Residential,0.1,2-40 First-time agricultural use of land valued at market price,N
2,Residential,0.1,2-41 Vacant land under common ownership with adjacent,N
2,Residential,0.1,2-88 Home improvement exemption,N
2,Residential,0.1,2-90 Minor improvement,N
2,Residential,0.1,2-97 Special residential improvements (May apply to condo building in first year of construction before division into individual units.),N
2,Residential,0.1,2-99 Residential condominium ,N
3,Multi_Family,0.1,3-00 Land used in conjunction with rental apartments,
3,Multi_Family,0.1,3-01 Garage used in conjunction with rental apartments,
3,Multi_Family,0.1,"3-13 Two-or-three-story, building, seven or more units",
3,Multi_Family,0.1,"3-14 Two-or-three-story, non-fireproof building with corridor apartment or California type apartments, no corridors exterior entrance",
3,Multi_Family,0.1,"3-15 Two-or-three-story, non-fireproof corridor apartments or California type apartments, interior entrance",
3,Multi_Family,0.1,"3-18 Mixed-use commercial/residential building with apartments and commercial area totaling seven units or more with a square-foot area of over 20,000 square feet",
3,Multi_Family,0.1,3-90 Other minor improvement related to rental use,
3,Multi_Family,0.1,"3-91 Apartment building over three stories, seven or more units",
3,Multi_Family,0.1,"3-96 Rented modern row houses, seven or more units in a single development or one or more contiguous parcels in common ownership",
3,Multi_Family,0.1,3-97 Special rental structure,
3,Multi_Family,0.1,3-99 Rental condominium ,
4,Not_for_Profit,0.2,4-00 Not-for-profit land,
4,Not_for_Profit,0.2,4-01 Not-for-profit garage,
4,Not_for_Profit,0.2,4-17 Not-for-profit one story commercial building,
4,Not_for_Profit,0.2,4-18 Not-for-profit two-or-three story mixed use commercial/residential building,
4,Not_for_Profit,0.2,4-22 Not-for-profit one-story non-fireproof public garage,
4,Not_for_Profit,0.2,4-23 Not-for-profit gasoline station,
4,Not_for_Profit,0.2,4-26 Not-for-profit commercial greenhouse,
4,Not_for_Profit,0.2,4-27 Not-for-profit theatre,
4,Not_for_Profit,0.2,4-28 Not-for-profit bank building,
4,Not_for_Profit,0.2,4-29 Not-for-profit motel ,
4,Not_for_Profit,0.2,4-30 Not-for-profit supermarket,
4,Not_for_Profit,0.2,4-31 Not-for-profit shopping center,
4,Not_for_Profit,0.2,4-32 Not-for-profit bowling alley,
4,Not_for_Profit,0.2,4-33 Not-for-profit quonset hut or butler type building,
4,Not_for_Profit,0.2,4-35 Not-for-profit golf course improvement,
4,Not_for_Profit,0.2,4-80 Not-for-profit industrial minor improvement,
4,Not_for_Profit,0.2,4-81 Not-for-profit garage used in conjunction with industrial improvement,
4,Not_for_Profit,0.2,4-83 Not-for-profit industrial quonset hut or butler type building,
4,Not_for_Profit,0.2,4-87 Not-for-profit special industrial improvement,
4,Not_for_Profit,0.2,4-89 Not-for-profit industrial condominium,
4,Not_for_Profit,0.2,4-90 Not-for-profit commercial minor improvement,
4,Not_for_Profit,0.2,4-91 Not-for-profit improvement over three stories,
4,Not_for_Profit,0.2,"4-92 Not-for-profit, two-or-three story building containing part or all retail and/or commercial space",
4,Not_for_Profit,0.2,4-93 Not-for-profitindustrial building,
4,Not_for_Profit,0.2,"4-96 Not-for-profit, rented modern row houses, seven or more units in a single development",
4,Not_for_Profit,0.2,4-97 Not-for-profit special structure,
4,Not_for_Profit,0.2,4-99 Not-for-profit condominium ,
5,Commercial,0.25,5-00 Commercial land,
5,Commercial,0.25,5-35 Golf course land,
5,Commercial,0.25,5-01 Garage used in conjunction with commercial improvements,
5,Commercial,0.25,5-16 Non-fireproof hotel or rooming house (apartment hotel),
5,Commercial,0.25,5-17 One-story commercial building,
5,Commercial,0.25,"5-22 One-story, non-fireproof public garage",
5,Commercial,0.25,5-23 Gasoline station,
5,Commercial,0.25,5-26 Commercial greenhouse,
5,Commercial,0.25,5-27 Theatre,
5,Commercial,0.25,5-28 Bank building,
5,Commercial,0.25,5-29 Motel,
5,Commercial,0.25,5-30 Supermarket,
5,Commercial,0.25,5-31 Shopping center,
5,Commercial,0.25,5-32 Bowling alley,
5,Commercial,0.25,5-33 Quonset hut or butler type building,
5,Commercial,0.25,5-35 Golf course improvement,
5,Commercial,0.25,5-90 Commercial minor improvement,
5,Commercial,0.25,5-91 Commercial building over three stories,
5,Commercial,0.25,5-92 Two-or-three-story building containing part or all retail and/or commercial space,
5,Commercial,0.25,5-97 Special commercial structure,
5,Commercial,0.25,5-99 Commercial condominium unit ,
5b,Industrial,0.25,5-50 Industrial land,
5b,Industrial,0.25,5-80 Industrial minor improvement,
5b,Industrial,0.25,5-81 Garage used in conjunction with industrial improvement,
5b,Industrial,0.25,5-83 Industrial quonset hut or butler type building,
5b,Industrial,0.25,5-87 Special industrial improvement,
5b,Industrial,0.25,5-89 Industrial condominium unit,
5b,Industrial,0.25,5-93 Industrial building,
6a,Industrial_Incentive,Varied,6-50 Industrial land,
6a,Industrial_Incentive,Varied,6-80 Industrial minor improvement,
6a,Industrial_Incentive,Varied,6-81 Garage used in conjunction with industrial incentive improvement,
6a,Industrial_Incentive,Varied,6-83 Industrial quonset hut or butler type building,
6a,Industrial_Incentive,Varied,6-87 Special industrial improvement,
6a,Industrial_Incentive,Varied,6-89 Industrial condominium unit,
6a,Industrial_Incentive,Varied,6-93 Industrial building ,
6b,Industrial_Incentive,Varied,6-51 Industrial land,
6b,Industrial_Incentive,Varied,6-63 Industrial building,
6b,Industrial_Incentive,Varied,6-70 Industrial minor improvement,
6b,Industrial_Incentive,Varied,6-71 Garage used in conjunction with industrial incentive improvement,
6b,Industrial_Incentive,Varied,6-73 Industrial quonset hut or butler type building,
6b,Industrial_Incentive,Varied,6-77 Special industrial improvement,
6b,Industrial_Incentive,Varied,6-79 Industrial condominium unit ,
6c,Industrial_Brownfields_Incentive,Varied,6-37 Industrial Brownfield land,
6c,Industrial_Brownfields_Incentive,Varied,6-38 Industrial Brownfield,
6c,Industrial_Brownfields_Incentive,Varied,6-54 Other industrial Brownfield minor improvements,
6c,Industrial_Brownfields_Incentive,Varied,6-55 Garage used in conjunction with industrial Brownfield incentive improvement,
6c,Industrial_Brownfields_Incentive,Varied,6-66 Industrial Brownfield quonset hut or butler type building,
6c,Industrial_Brownfields_Incentive,Varied,6-68 Special industrial Brownfield improvement,
6c,Industrial_Brownfields_Incentive,Varied,6-69 Industrial Brownfield condominium unit ,
7a,Commercial_Incentive,Varied,7-00 Commercial Incentive Land,
7a,Commercial_Incentive,Varied,7-35 Golf Course Land,
7a,Commercial_Incentive,Varied,7-01 Garage used in conjunction with Commercial Incentive improvement,
7a,Commercial_Incentive,Varied,7-16 Non-Fireproof hotel or rooming house (Apartment hotel),
7a,Commercial_Incentive,Varied,7-17 One-story commercial use building,
7a,Commercial_Incentive,Varied,"7-22 Garage, service station",
7a,Commercial_Incentive,Varied,"7-23 Gasoline station, with /without bays, store",
7a,Commercial_Incentive,Varied,7-26 Commercial greenhouse,
7a,Commercial_Incentive,Varied,7-27 Theatre ,
7a,Commercial_Incentive,Varied,7-28 Bank building,
7a,Commercial_Incentive,Varied,7-29 Motel,
7a,Commercial_Incentive,Varied,7-30 Supermarket,
7a,Commercial_Incentive,Varied,7-31 Shopping center,
7a,Commercial_Incentive,Varied,7-32 Bowling alley,
7a,Commercial_Incentive,Varied,7-33 Quonset hut or butler type building,
7a,Commercial_Incentive,Varied,7-35 Golf course improvement,
7a,Commercial_Incentive,Varied,7-90 Other minor commercial improvement,
7a,Commercial_Incentive,Varied,"7-91 Office building (One story, low, rise, mid rise, high rise)",
7a,Commercial_Incentive,Varied,7-92 Two-or-three-story building containing part or all retail and/or commercial space,
7a,Commercial_Incentive,Varied,7-97 Special commercial structure,
7a,Commercial_Incentive,Varied,7-99 Commercial/Industrial-Condominium unit/garage ,
7b,Commercial_Incentive,Varied,7-42 Commercial incentive land,
7b,Commercial_Incentive,Varied,7-45 Golf course land,
7b,Commercial_Incentive,Varied,7-43 Garage used in conjunction with commercial incentive improvement,
7b,Commercial_Incentive,Varied,7-45 Golf course improvement,
7b,Commercial_Incentive,Varied,7-46 Non-Fireproof hotel or rooming house (Apartment hotel),
7b,Commercial_Incentive,Varied,7-47 One-story commercial building,
7b,Commercial_Incentive,Varied,7-48 Motel,
7b,Commercial_Incentive,Varied,"7-52 Garage, service station",
7b,Commercial_Incentive,Varied,"7-53 Gasoline station, with/without bays, store",
7b,Commercial_Incentive,Varied,7-56 Commercial greenhouse,
7b,Commercial_Incentive,Varied,7-57 Theatre,
7b,Commercial_Incentive,Varied,7-58 Bank building,
7b,Commercial_Incentive,Varied,7-60 Supermarket,
7b,Commercial_Incentive,Varied,"7-61 Shopping center (Regional, community, neighborhood, promotional, specialty)",
7b,Commercial_Incentive,Varied,7-62 Bowling alley,
7b,Commercial_Incentive,Varied,7-64 Quonset hut or butler type building,
7b,Commercial_Incentive,Varied,7-65 Other minor commercial improvements,
7b,Commercial_Incentive,Varied,7-67 Special commercial structure ,
7b,Commercial_Incentive,Varied,"7-72 Two-or-three-story building, containing part or all retail and/or commercial space",
7b,Commercial_Incentive,Varied,7-74 Office building,
7b,Commercial_Incentive,Varied,7-98 Commercial/Industrial-condominium units/garage ,
8,Commercial/Industrial_Incentive,Varied,8-00 Commercial incentive land,
8,Commercial/Industrial_Incentive,Varied,8-35 Golf course land,
8,Commercial/Industrial_Incentive,Varied,8-50 Industrial incentive land,
8,Commercial/Industrial_Incentive,Varied,8-01 Garage used in conjunction with commercial incentive improvement,
8,Commercial/Industrial_Incentive,Varied,8-16 Non-fireproof hotel or rooming house (apartment hotel),
8,Commercial/Industrial_Incentive,Varied,8-17 One-story commercial building,
8,Commercial/Industrial_Incentive,Varied,"8-22 Garage, service station",
8,Commercial/Industrial_Incentive,Varied,"8-23 Gasoline station with/without bay, store",
8,Commercial/Industrial_Incentive,Varied,8-26 Commercial greenhouse,
8,Commercial/Industrial_Incentive,Varied,8-27 Theatre,
8,Commercial/Industrial_Incentive,Varied,8-28 Bank building,
8,Commercial/Industrial_Incentive,Varied,8-29 Motel,
8,Commercial/Industrial_Incentive,Varied,8-30 Supermarket,
8,Commercial/Industrial_Incentive,Varied,"8-31 Shopping center (Regional, community, neighborhood, promotional, specialty)",
8,Commercial/Industrial_Incentive,Varied,8-32 Bowling alley,
8,Commercial/Industrial_Incentive,Varied,8-33 Quonset hut or butler type building,
8,Commercial/Industrial_Incentive,Varied,8-35 Golf course improvement,
8,Commercial/Industrial_Incentive,Varied,8-80 Industrial minor improvement,
8,Commercial/Industrial_Incentive,Varied,8-81 Garage used in conjunction with industrial incentive improvement,
8,Commercial/Industrial_Incentive,Varied,8-83 Quonset hut or butler type building,
8,Commercial/Industrial_Incentive,Varied,8-87 Special industrial improvement,
8,Commercial/Industrial_Incentive,Varied,8-89 Industrial condominium unit,
8,Commercial/Industrial_Incentive,Varied,8-90 Minor industrial improvement,
8,Commercial/Industrial_Incentive,Varied,8-91 Office building,
8,Commercial/Industrial_Incentive,Varied,8-92 Two-or-three-story building containing part or all retail and/or commercial space,
8,Commercial/Industrial_Incentive,Varied,8-93 Industrial building,
8,Commercial/Industrial_Incentive,Varied,8-97 Special commercial structure,
8,Commercial/Industrial_Incentive,Varied,8-99 Commercial/Industrial condominium unit/garage,
9,Multi_Family_Incentive,0.1,9-00 Land used in conjunction with incentive rental apartments,
9,Multi_Family_Incentive,0.1,9-01 Garage used in conjunction with incentive rental apartment,
9,Multi_Family_Incentive,0.1,"9-13 Two-or-three-story apartment building, seven or more units",
9,Multi_Family_Incentive,0.1,"9-14 Two-or-three-story, non-fireproof court and corridor apartments or California type apartments, no corridors, exterior entrance",
9,Multi_Family_Incentive,0.1,"9-15 Two-or-three-story non-fireproof corridor apartments, or California type apartments, interior entrance",
9,Multi_Family_Incentive,0.1,9-18 Mixed use commercial/residential building with apartments and commercial area where the commercial area is granted an incentive use,
9,Multi_Family_Incentive,0.1,9-59 Rental condominium unit,
9,Multi_Family_Incentive,0.1,9-90 Other minor improvements,
9,Multi_Family_Incentive,0.1,9-91 Apartment buildings over three stories,
9,Multi_Family_Incentive,0.1,"9-96 Rented modern row houses, seven or more units in a single development or one or more contiguous parcels in common ownership",
9,Multi_Family_Incentive,0.1,9-97 Special rental structure  ,